%YAML 1.1
%TAG !u! tag:unity3d.com,2011:
--- !u!114 &11400000
MonoBehaviour:
  m_ObjectHideFlags: 0
  m_CorrespondingSourceObject: {fileID: 0}
  m_PrefabInstance: {fileID: 0}
  m_PrefabAsset: {fileID: 0}
  m_GameObject: {fileID: 0}
  m_Enabled: 1
  m_EditorHideFlags: 0
  m_Script: {fileID: 11500000, guid: a81b0ef46d4aff64cbce802803e1ed5f, type: 3}
  m_Name: PlayerConfig
  m_EditorClassIdentifier: 
  _id: player
  _speed: 10
  _stopDistance: 0.5
  _moveAnimationBoolName: IsRunning
