%YAML 1.1
%TAG !u! tag:unity3d.com,2011:
--- !u!114 &11400000
MonoBehaviour:
  m_ObjectHideFlags: 0
  m_CorrespondingSourceObject: {fileID: 0}
  m_PrefabInstance: {fileID: 0}
  m_PrefabAsset: {fileID: 0}
  m_GameObject: {fileID: 0}
  m_Enabled: 1
  m_EditorHideFlags: 0
  m_Script: {fileID: 11500000, guid: e05cddc9a6c850240ad693dae2aa7750, type: 3}
  m_Name: RedButtonConfig
  m_EditorClassIdentifier: 
  _id: redButton
  _connectedDoors:
  - {fileID: 11400000, guid: 5734bbf0bfda9db48bf08a21be0bb55c, type: 2}
